{"status":200,"data":{"content":[{"uuid":"16b08e38-d60e-4b92-b969-63bb87d000a9","description":"to delete","customSteps":"wait 1 sec","labels":[],"createdAt":"2025-01-17T16:23:53.172Z","createdBy":{"userId":"h92JSeDYEfSPtyz8M","email":"esdras.ferreira@testrigor.com","userAuditString":"esdras.ferreira@testrigor.com"},"modifiedAt":"2025-01-17T16:43:31.746Z","modifiedBy":{"userId":"API","remoteIp":"2804:29b8:504a:4bff:1f5:7d60:73f2:4c5f","userAuditString":"API - IP Origin: 2804:29b8:504a:4bff:1f5:7d60:73f2:4c5f"},"disabled":false},{"uuid":"3db96ff7-ef75-4d64-b1f0-0d38b8e4dc13","description":"Clean cookies of the frontend","customSteps":"call api get \"https://cleancookies.aws/exampleCompany\"","labels":[],"createdAt":"2025-01-17T13:48:52.694Z","createdBy":{"userId":"h92JSeDYEfSPtyz8M","email":"esdras.ferreira@testrigor.com","userAuditString":"esdras.ferreira@testrigor.com"},"modifiedAt":"2025-01-17T16:43:31.762Z","modifiedBy":{"userId":"API","remoteIp":"2804:29b8:504a:4bff:1f5:7d60:73f2:4c5f","userAuditString":"API - IP Origin: 2804:29b8:504a:4bff:1f5:7d60:73f2:4c5f"},"disabled":false},{"uuid":"8729e9d4-6c85-4dbf-96c9-9e82b678b31b","description":"Testing grab by AI","customSteps":"open url \"https://testrigorplayground.netlify.app/pages/verifycode\"\n\n// grab value by description \"4 digit code\" from \"the element close to the code is\" using AI and save it as \"code\"\ngrab value by description \"4 digit code\" using AI and save it as \"code\"\n\nhover over middle of the screen","labels":["Regression"],"createdAt":"2024-12-16T17:18:52.428Z","createdBy":{"userId":"h92JSeDYEfSPtyz8M","email":"esdras.ferreira@testrigor.com","userAuditString":"esdras.ferreira@testrigor.com"},"modifiedAt":"2025-01-17T16:43:31.777Z","modifiedBy":{"userId":"API","remoteIp":"2804:29b8:504a:4bff:1f5:7d60:73f2:4c5f","userAuditString":"API - IP Origin: 2804:29b8:504a:4bff:1f5:7d60:73f2:4c5f"},"disabled":false},{"uuid":"17913406-0392-4a75-a51b-dbf582ca8264","description":"Procurando o TOTVS","customSteps":"open url \"https://www.google.com\"\n\nclick \"Search\"\n\nenter \"TOTVS\" into \"Search\"\n\ntype enter\n\ncheck that page contains \"WE ARE TOTVS, THE LARGEST TECHNOLOGY COMPANY IN ...\"","labels":["Regresssion"],"createdAt":"2024-11-25T18:42:53.356Z","createdBy":{"userId":"h92JSeDYEfSPtyz8M","email":"esdras.ferreira@testrigor.com","userAuditString":"esdras.ferreira@testrigor.com"},"modifiedAt":"2025-01-17T16:43:31.798Z","modifiedBy":{"userId":"API","remoteIp":"2804:29b8:504a:4bff:1f5:7d60:73f2:4c5f","userAuditString":"API - IP Origin: 2804:29b8:504a:4bff:1f5:7d60:73f2:4c5f"},"disabled":false},{"uuid":"a6b41031-51ca-46ae-baa0-c222a02718e5","description":"Ciclos e loops","customSteps":"open url \"https://testrigor1playground.netlify.app/pages/buttonclick\"\n\n// click \"Click\" up to 10 times until \"This text is now visible!\" is visible\n\nopen url \"https://qaplayground.dev/\"\n\nscroll down up to 15 times until \"Dynamic table\" is visible","labels":["Prod"],"createdAt":"2024-10-28T19:44:33.324Z","createdBy":{"userId":"h92JSeDYEfSPtyz8M","email":"esdras.ferreira@testrigor.com","userAuditString":"esdras.ferreira@testrigor.com"},"modifiedAt":"2025-01-17T16:43:31.813Z","modifiedBy":{"userId":"API","remoteIp":"2804:29b8:504a:4bff:1f5:7d60:73f2:4c5f","userAuditString":"API - IP Origin: 2804:29b8:504a:4bff:1f5:7d60:73f2:4c5f"},"disabled":false},{"uuid":"97cf1bae-5e05-42dc-87b4-339a0ac77763","description":"Aula de tabelas","customSteps":"open url \"https://testrigorplayground.netlify.app/pages/dynamictable\"\n\ngrab value from element below \"Real name\" and on the right of \"Black Widow\" and save as \"nomeHeroi\"\n\nclick exactly \"go\" if page contains \"mundial de clubes\" below \"dynamic table\"\n\nsave value \"rgba(173,216,230,1)\" as \"blueColor\"\n\n// fail with \"It is not blue color\" if property \"background-color\" of \"Dynamic Table\" is not equal to stored value \"blueColor\"\n\n//click stored value \"nomeHeroi\"","labels":["QA"],"createdAt":"2024-10-28T19:21:56.717Z","createdBy":{"userId":"h92JSeDYEfSPtyz8M","email":"esdras.ferreira@testrigor.com","userAuditString":"esdras.ferreira@testrigor.com"},"modifiedAt":"2025-01-17T16:43:31.829Z","modifiedBy":{"userId":"API","remoteIp":"2804:29b8:504a:4bff:1f5:7d60:73f2:4c5f","userAuditString":"API - IP Origin: 2804:29b8:504a:4bff:1f5:7d60:73f2:4c5f"},"disabled":false},{"uuid":"75d6eced-1a67-4d8a-af98-183229d5ce3c","description":"Lidando com emails","customSteps":"generate from template \"teste-regressivo-09-******@testrigor-mail.com\" and save as \"email\"\n\nsend email to stored value \"email\" with subject \"Test\" and body \"Hi, this is a test 12345\", and attachment from saved value \"perfil\"\n\ncheck that email to stored value \"email\" and \"Test\" in subject was received\n\ngrab value by template \"#####\" and save as \"numero\"\n\n// click on \"sample.pdf\"\nswitch to tab 1","labels":["Regression","Unit Tests","Smoke"],"createdAt":"2024-10-24T19:12:27.507Z","createdBy":{"userId":"h92JSeDYEfSPtyz8M","email":"esdras.ferreira@testrigor.com","userAuditString":"esdras.ferreira@testrigor.com"},"modifiedAt":"2025-01-17T16:43:31.868Z","modifiedBy":{"userId":"API","remoteIp":"2804:29b8:504a:4bff:1f5:7d60:73f2:4c5f","userAuditString":"API - IP Origin: 2804:29b8:504a:4bff:1f5:7d60:73f2:4c5f"},"disabled":false},{"uuid":"6629ce3d-23ab-4d19-b7d4-d79a3aa0e361","description":"Aula de condicionais","customSteps":"open url \"https://testrigorplayground.netlify.app/pages/dynamiclogintext\"\n\nif page does not contain \"Login\" roughly below \"Password\" then\nfail with error \"page does not contain the word login anywhere\"\nelse\nclick \"Login\"\ncheck that page contains \"successful login\"\nend","labels":[],"createdAt":"2024-10-23T19:35:21.41Z","createdBy":{"userId":"h92JSeDYEfSPtyz8M","email":"esdras.ferreira@testrigor.com","userAuditString":"esdras.ferreira@testrigor.com"},"modifiedAt":"2025-01-17T16:43:31.884Z","modifiedBy":{"userId":"API","remoteIp":"2804:29b8:504a:4bff:1f5:7d60:73f2:4c5f","userAuditString":"API - IP Origin: 2804:29b8:504a:4bff:1f5:7d60:73f2:4c5f"},"disabled":false},{"uuid":"ef6703b9-448b-4a81-aef3-d41ca4c81df8","description":"Aula de Validações II","customSteps":"open url \"https://testrigorplayground.netlify.app/pages/dynamiclogintext\"\n\ncheck that \"Enter email\" contains \"example@example.com\"","labels":[],"createdAt":"2024-10-23T19:31:20.302Z","createdBy":{"userId":"h92JSeDYEfSPtyz8M","email":"esdras.ferreira@testrigor.com","userAuditString":"esdras.ferreira@testrigor.com"},"modifiedAt":"2025-01-17T16:43:31.901Z","modifiedBy":{"userId":"API","remoteIp":"2804:29b8:504a:4bff:1f5:7d60:73f2:4c5f","userAuditString":"API - IP Origin: 2804:29b8:504a:4bff:1f5:7d60:73f2:4c5f"},"disabled":false},{"uuid":"14f227db-a458-4d16-aeee-166e600bb5f6","description":"Aula de Validações","customSteps":"open url \"https://testrigorplayground.netlify.app/pages/verifycode\"\ncheck that property of \"background-color\" of \"Verify\" is equal to \"rgba(13, 110, 253, 1)\"\n\ncheck that statement is true \"the button verify color is blue\"\n// click on \"Open first modal\"\n// check that page contains \"Hi. This is the first modal popup.\"\n// check that page doesn't contain \"error message\"\n\n//check that page contains simple template \"####\"\n//check that page has regex \"^\\d{4}$\"","labels":[],"createdAt":"2024-10-21T19:34:39.312Z","createdBy":{"userId":"h92JSeDYEfSPtyz8M","email":"esdras.ferreira@testrigor.com","userAuditString":"esdras.ferreira@testrigor.com"},"modifiedAt":"2025-01-17T16:43:31.918Z","modifiedBy":{"userId":"API","remoteIp":"2804:29b8:504a:4bff:1f5:7d60:73f2:4c5f","userAuditString":"API - IP Origin: 2804:29b8:504a:4bff:1f5:7d60:73f2:4c5f"},"disabled":false},{"uuid":"4d68f275-421d-42f3-bed7-59d809eee31e","description":"Teste de Variáveis","customSteps":"open url \"https://testrigorplayground.netlify.app/pages/downloadfile\"\n\nsave value \"Joao\" as \"primeiroNome\"\nsave value \"Silva\" as \"segundoNome\"\n\nsave string with parameters \"Welcome, ${primeiroNome} ${segundoNome}!\" as \"stringComParametros\"\n\n// click \"Download file\"\n// check that file was downloaded and save text as \"file_text_1\"\n\n// //grab value from element on the right of \"The code is\" and save as \"codeWithRelativeLocationsOnly\"\n// // grab value of \"\\d*\" from element near \"The code is\" and save as \"codeWithRelativeLocationsOnlyWithRegex\"\n// grab value by template \"####\" near \"The code is:\" and save as \"codeWithTemplate\"\n// grab value from \"displayedCode\" and save as \"codeWithId\"","labels":[],"createdAt":"2024-10-21T19:15:24.785Z","createdBy":{"userId":"h92JSeDYEfSPtyz8M","email":"esdras.ferreira@testrigor.com","userAuditString":"esdras.ferreira@testrigor.com"},"modifiedAt":"2025-01-17T16:43:31.937Z","modifiedBy":{"userId":"API","remoteIp":"2804:29b8:504a:4bff:1f5:7d60:73f2:4c5f","userAuditString":"API - IP Origin: 2804:29b8:504a:4bff:1f5:7d60:73f2:4c5f"},"disabled":false},{"uuid":"bbf3a543-5a47-46bb-b81f-7eff43b75a8e","description":"Validações não visíveis com IA","customSteps":"save value \"10/16/2022\" as \"date\"\n\ncheck that page string with parameters \"${date} is in the past using the american date format\" using ai\ncheck that statement is true string with parameters \"${date} is in the past using the american date format\"","labels":[],"createdAt":"2024-10-17T16:38:10.475Z","createdBy":{"userId":"h92JSeDYEfSPtyz8M","email":"esdras.ferreira@testrigor.com","userAuditString":"esdras.ferreira@testrigor.com"},"modifiedAt":"2025-01-17T16:43:31.963Z","modifiedBy":{"userId":"API","remoteIp":"2804:29b8:504a:4bff:1f5:7d60:73f2:4c5f","userAuditString":"API - IP Origin: 2804:29b8:504a:4bff:1f5:7d60:73f2:4c5f"},"disabled":false},{"uuid":"644debc2-4c77-4415-b315-795acf9514dc","description":"Chamada de API","customSteps":"call api get \"https://rickandmortyapi.com/api/character/?page=19\" and get \"$.info.count\" and save it as \"variableName\"\n\ncheck that stored value \"variableName\" itself contains \"826\"","labels":["Regressivos MWM"],"createdAt":"2024-09-25T13:59:39.228Z","createdBy":{"userId":"h92JSeDYEfSPtyz8M","email":"esdras.ferreira@testrigor.com","userAuditString":"esdras.ferreira@testrigor.com"},"modifiedAt":"2025-01-17T16:43:31.998Z","modifiedBy":{"userId":"API","remoteIp":"2804:29b8:504a:4bff:1f5:7d60:73f2:4c5f","userAuditString":"API - IP Origin: 2804:29b8:504a:4bff:1f5:7d60:73f2:4c5f"},"disabled":false},{"uuid":"c1dd590f-e945-4827-8ca1-25e55ec44a65","description":"Aula de scroll e swipes","customSteps":"open url \"https://qaplayground.dev/\"\n\nscroll down by 1/4 of the screen\nscroll up on \"Mini web apps\"\n\nscroll down on the middle of the screen up to 10 times until page contains \"New Tab\"\nhover over middle of the screen\n\nopen url \"https://www.google.com.br\"","labels":[],"createdAt":"2024-05-03T02:22:07.049Z","createdBy":{"userId":"h92JSeDYEfSPtyz8M","email":"esdras.ferreira@testrigor.com","userAuditString":"esdras.ferreira@testrigor.com"},"modifiedAt":"2025-01-17T16:43:32.022Z","modifiedBy":{"userId":"API","remoteIp":"2804:29b8:504a:4bff:1f5:7d60:73f2:4c5f","userAuditString":"API - IP Origin: 2804:29b8:504a:4bff:1f5:7d60:73f2:4c5f"},"disabled":false},{"uuid":"d1f7bf7b-2f12-4e96-9eeb-5bc88683c397","description":"Aula de validações - Parte II","customSteps":"open url \"https://www.saucedemo.com/\"\nenter \"standard_user\" into \"Username\"\ncheck that \"Username\" has value \"standard_user\"\n\nsave value \"123\" as \"variable\"\ncheck that stored value \"variable\" itself matches regex \"\\d*\"\n\ncheck that url contains \"sauce\"","labels":[],"createdAt":"2024-05-03T02:09:57.476Z","createdBy":{"userId":"h92JSeDYEfSPtyz8M","email":"esdras.ferreira@testrigor.com","userAuditString":"esdras.ferreira@testrigor.com"},"modifiedAt":"2025-01-17T16:43:32.049Z","modifiedBy":{"userId":"API","remoteIp":"2804:29b8:504a:4bff:1f5:7d60:73f2:4c5f","userAuditString":"API - IP Origin: 2804:29b8:504a:4bff:1f5:7d60:73f2:4c5f"},"disabled":false},{"uuid":"a7db7f97-4388-4c00-8eb6-32e12fcdc8b2","description":"Aula de validações","customSteps":"open url \"https://qaplayground.dev/apps/verify-account/\"\n\ncheck that page contains \"Verify Your Account\" //validação positiva\nhover over middle of the screen\n\ncheck that page does not contain \"error message\" //validação negativa\nhover over middle of the screen\n\ncheck that page contains simple template \"The confirmation code is #-#-#-#-#-#\" below \"Verify Your Account\" //com localização relativa\nhover over middle of the screen\n\ncheck that page has regex \"(\\d-)*(\\d)\"\nhover over middle of the screen\n\ncheck that property of \"background-color\" of \"info\" is equal to \"rgba(250, 129, 66, 1)\"\nhover over middle of the screen\n\ncheck that \"container\" contains \"Verify Your Account\"\nhover over middle of the screen\n\ncall api get \"https://rickandmortyapi.com/api\" and save it as \"rickAndMortyAPI\"\ncheck that stored value \"rickAndMortyAPI\" itself contains \"character\"","labels":[],"createdAt":"2024-04-30T00:33:24.065Z","createdBy":{"userId":"h92JSeDYEfSPtyz8M","email":"esdras.ferreira@testrigor.com","userAuditString":"esdras.ferreira@testrigor.com"},"modifiedAt":"2025-01-17T16:43:32.079Z","modifiedBy":{"userId":"API","remoteIp":"2804:29b8:504a:4bff:1f5:7d60:73f2:4c5f","userAuditString":"API - IP Origin: 2804:29b8:504a:4bff:1f5:7d60:73f2:4c5f"},"disabled":false},{"uuid":"7f992585-ca07-45cc-89c1-5cb9f8c6b2f9","description":"Fazer login","customSteps":"open url \"https://www.saucedemo.com/\"\nLogin com stored value \"usuario\" e stored value \"senha\"\nclick on \"Add to cart\" above \"Sauce Labs Bolt T-shirt\"","labels":[],"createdAt":"2024-04-17T00:33:24.331Z","createdBy":{"userId":"h92JSeDYEfSPtyz8M","email":"esdras.ferreira@testrigor.com","userAuditString":"esdras.ferreira@testrigor.com"},"modifiedAt":"2025-01-17T16:43:32.104Z","modifiedBy":{"userId":"API","remoteIp":"2804:29b8:504a:4bff:1f5:7d60:73f2:4c5f","userAuditString":"API - IP Origin: 2804:29b8:504a:4bff:1f5:7d60:73f2:4c5f"},"disabled":false},{"uuid":"e0fad6fc-6951-445c-8431-f8bfa1d0553a","description":"Aula de dropdowns","customSteps":"open url \"https://qaplayground.dev/apps/budget-tracker/\"\n\nclick \"New entry\"\nselect \"Expense\" from dropdown below \"Type\"\ncheck that dropdown below \"Type\" contains \"Expense\" \nhover over middle of the screen\n\nselect \"Income\" from \"Expense\"\ncheck that dropdown below \"Type\" contains \"Income\"\n\nclick \"Income\"\nclick \"Expense\"\ncheck that dropdown below \"Type\" contains \"Expense\"\n\ncheck that page contains \"Income\"","labels":[],"createdAt":"2024-04-09T03:13:44.718Z","createdBy":{"userId":"h92JSeDYEfSPtyz8M","email":"esdras.ferreira@testrigor.com","userAuditString":"esdras.ferreira@testrigor.com"},"modifiedAt":"2025-01-17T16:43:32.131Z","modifiedBy":{"userId":"API","remoteIp":"2804:29b8:504a:4bff:1f5:7d60:73f2:4c5f","userAuditString":"API - IP Origin: 2804:29b8:504a:4bff:1f5:7d60:73f2:4c5f"},"disabled":false},{"uuid":"48f57d77-ab45-44b9-81c0-dec094e1064c","description":"Aula de checkboxes","customSteps":"open url \"https://testrigorplayground.netlify.app/pages/checkbox.html\"\n\nclick on checkbox \"First\"\ncheck that checkbox \"First\" is checked\n\nclick on checkbox \"First\"\ncheck that checkbox \"First\" is unchecked","labels":[],"createdAt":"2024-04-04T02:35:42.598Z","createdBy":{"userId":"h92JSeDYEfSPtyz8M","email":"esdras.ferreira@testrigor.com","userAuditString":"esdras.ferreira@testrigor.com"},"modifiedAt":"2025-01-17T16:43:32.199Z","modifiedBy":{"userId":"API","remoteIp":"2804:29b8:504a:4bff:1f5:7d60:73f2:4c5f","userAuditString":"API - IP Origin: 2804:29b8:504a:4bff:1f5:7d60:73f2:4c5f"},"disabled":false},{"uuid":"345a8d36-4227-40dd-9f69-d1806556bbe8","description":"Aula de enter multilinhas","customSteps":"open url \"https://text-compare.com/\"\nwait 1 sec up to 10 times until page contains \"Paste one version\"\nhover over middle of the screen\n\nenter text starting from next line and ending with [END]\nHello Max,\nLet's discuss the opportunity\n[END] into \"Paste one version\"\n\ntype enter\ntype \"alguma coisa\"\ntype ctrl+a\ntype delete","labels":[],"createdAt":"2024-03-31T02:50:30.065Z","createdBy":{"userId":"h92JSeDYEfSPtyz8M","email":"esdras.ferreira@testrigor.com","userAuditString":"esdras.ferreira@testrigor.com"},"modifiedAt":"2025-01-17T16:43:32.225Z","modifiedBy":{"userId":"API","remoteIp":"2804:29b8:504a:4bff:1f5:7d60:73f2:4c5f","userAuditString":"API - IP Origin: 2804:29b8:504a:4bff:1f5:7d60:73f2:4c5f"},"disabled":false}],"pageable":{"sort":{"empty":false,"sorted":true,"unsorted":false},"offset":0,"pageNumber":0,"pageSize":20,"paged":true,"unpaged":false},"last":false,"totalPages":2,"totalElements":35,"sort":{"empty":false,"sorted":true,"unsorted":false},"first":true,"size":20,"number":0,"numberOfElements":20,"empty":false}}